testbench.vcd
$date
	Tue Aug 26 14:00:40 2025
$end
$version
	Icarus Verilog
$end
$timescale
	1ps
$end
$scope module testbench $end
$var wire 1 ! trap $end
$var wire 4 " mem_wstrb [3:0] $end
$var wire 32 # mem_wdata [31:0] $end
$var wire 1 $ mem_valid $end
$var wire 32 % mem_addr [31:0] $end
$var reg 1 & clk $end
$var reg 32 ' mem_rdata [31:0] $end
$var reg 1 ( mem_ready $end
$var reg 1 ) resetn $end
$var reg 8 * uart_tx_data [7:0] $end
$var reg 1 + uart_tx_valid $end
$scope module uut $end
$var wire 1 & clk $end
$var wire 32 , dbg_mem_addr [31:0] $end
$var wire 1 - dbg_mem_instr $end
$var wire 32 . dbg_mem_rdata [31:0] $end
$var wire 1 / dbg_mem_ready $end
$var wire 1 0 dbg_mem_valid $end
$var wire 32 1 dbg_mem_wdata [31:0] $end
$var wire 4 2 dbg_mem_wstrb [3:0] $end
$var wire 1 3 instr_trap $end
$var wire 32 4 irq [31:0] $end
$var wire 1 5 launch_next_insn $end
$var wire 1 6 mem_done $end
$var wire 1 7 mem_la_firstword $end
$var wire 1 8 mem_la_firstword_xfer $end
$var wire 1 9 mem_la_read $end
$var wire 1 : mem_la_use_prefetched_high_word $end
$var wire 1 ; mem_la_write $end
$var wire 32 < mem_rdata [31:0] $end
$var wire 1 ( mem_ready $end
$var wire 1 = mem_xfer $end
$var wire 32 > pcpi_div_rd [31:0] $end
$var wire 1 ? pcpi_div_ready $end
$var wire 1 @ pcpi_div_wait $end
$var wire 1 A pcpi_div_wr $end
$var wire 32 B pcpi_mul_rd [31:0] $end
$var wire 1 C pcpi_mul_ready $end
$var wire 1 D pcpi_mul_wait $end
$var wire 1 E pcpi_mul_wr $end
$var wire 32 F pcpi_rd [31:0] $end
$var wire 1 G pcpi_ready $end
$var wire 32 H pcpi_rs1 [31:0] $end
$var wire 32 I pcpi_rs2 [31:0] $end
$var wire 1 J pcpi_wait $end
$var wire 1 K pcpi_wr $end
$var wire 1 ) resetn $end
$var wire 32 L next_pc [31:0] $end
$var wire 32 M mem_rdata_latched_noshuffle [31:0] $end
$var wire 32 N mem_rdata_latched [31:0] $end
$var wire 32 O mem_la_addr [31:0] $end
$var wire 1 P mem_busy $end
$var wire 1 Q is_rdcycle_rdcycleh_rdinstr_rdinstrh $end
$var reg 32 R alu_add_sub [31:0] $end
$var reg 1 S alu_eq $end
$var reg 1 T alu_lts $end
$var reg 1 U alu_ltu $end
$var reg 32 V alu_out [31:0] $end
$var reg 1 W alu_out_0 $end
$var reg 1 X alu_out_0_q $end
$var reg 32 Y alu_out_q [31:0] $end
$var reg 32 Z alu_shl [31:0] $end
$var reg 32 [ alu_shr [31:0] $end
$var reg 1 \ alu_wait $end
$var reg 1 ] alu_wait_2 $end
$var reg 64 ^ cached_ascii_instr [63:0] $end
$var reg 32 _ cached_insn_imm [31:0] $end
$var reg 32 ` cached_insn_opcode [31:0] $end
$var reg 5 a cached_insn_rd [4:0] $end
$var reg 5 b cached_insn_rs1 [4:0] $end
$var reg 5 c cached_insn_rs2 [4:0] $end
$var reg 1 d clear_prefetched_high_word $end
$var reg 1 e clear_prefetched_high_word_q $end
$var reg 1 f compressed_instr $end
$var reg 64 g count_cycle [63:0] $end
$var reg 64 h count_instr [63:0] $end
$var reg 8 i cpu_state [7:0] $end
$var reg 32 j cpuregs_rs1 [31:0] $end
$var reg 32 k cpuregs_rs2 [31:0] $end
$var reg 32 l cpuregs_wrdata [31:0] $end
$var reg 1 m cpuregs_write $end
$var reg 32 n current_pc [31:0] $end
$var reg 64 o dbg_ascii_instr [63:0] $end
$var reg 128 p dbg_ascii_state [127:0] $end
$var reg 32 q dbg_insn_addr [31:0] $end
$var reg 32 r dbg_insn_imm [31:0] $end
$var reg 32 s dbg_insn_opcode [31:0] $end
$var reg 5 t dbg_insn_rd [4:0] $end
$var reg 5 u dbg_insn_rs1 [4:0] $end
$var reg 5 v dbg_insn_rs2 [4:0] $end
$var reg 1 w dbg_next $end
$var reg 32 x dbg_rs1val [31:0] $end
$var reg 1 y dbg_rs1val_valid $end
$var reg 32 z dbg_rs2val [31:0] $end
$var reg 1 { dbg_rs2val_valid $end
$var reg 1 | dbg_valid_insn $end
$var reg 32 } decoded_imm [31:0] $end
$var reg 32 ~ decoded_imm_j [31:0] $end
$var reg 5 !" decoded_rd [4:0] $end
$var reg 5 "" decoded_rs [4:0] $end
$var reg 5 #" decoded_rs1 [4:0] $end
$var reg 5 $" decoded_rs2 [4:0] $end
$var reg 1 %" decoder_pseudo_trigger $end
$var reg 1 &" decoder_pseudo_trigger_q $end
$var reg 1 '" decoder_trigger $end
$var reg 1 (" decoder_trigger_q $end
$var reg 1 )" do_waitirq $end
$var reg 32 *" eoi [31:0] $end
$var reg 1 +" instr_add $end
$var reg 1 ," instr_addi $end
$var reg 1 -" instr_and $end
$var reg 1 ." instr_andi $end
$var reg 1 /" instr_auipc $end
$var reg 1 0" instr_beq $end
$var reg 1 1" instr_bge $end
$var reg 1 2" instr_bgeu $end
$var reg 1 3" instr_blt $end
$var reg 1 4" instr_bltu $end
$var reg 1 5" instr_bne $end
$var reg 1 6" instr_ecall_ebreak $end
$var reg 1 7" instr_fence $end
$var reg 1 8" instr_getq $end
$var reg 1 9" instr_jal $end
$var reg 1 :" instr_jalr $end
$var reg 1 ;" instr_lb $end
$var reg 1 <" instr_lbu $end
$var reg 1 =" instr_lh $end
$var reg 1 >" instr_lhu $end
$var reg 1 ?" instr_lui $end
$var reg 1 @" instr_lw $end
$var reg 1 A" instr_maskirq $end
$var reg 1 B" instr_or $end
$var reg 1 C" instr_ori $end
$var reg 1 D" instr_rdcycle $end
$var reg 1 E" instr_rdcycleh $end
$var reg 1 F" instr_rdinstr $end
$var reg 1 G" instr_rdinstrh $end
$var reg 1 H" instr_retirq $end
$var reg 1 I" instr_sb $end
$var reg 1 J" instr_setq $end
$var reg 1 K" instr_sh $end
$var reg 1 L" instr_sll $end
$var reg 1 M" instr_slli $end
$var reg 1 N" instr_slt $end
$var reg 1 O" instr_slti $end
$var reg 1 P" instr_sltiu $end
$var reg 1 Q" instr_sltu $end
$var reg 1 R" instr_sra $end
$var reg 1 S" instr_srai $end
$var reg 1 T" instr_srl $end
$var reg 1 U" instr_srli $end
$var reg 1 V" instr_sub $end
$var reg 1 W" instr_sw $end
$var reg 1 X" instr_timer $end
$var reg 1 Y" instr_waitirq $end
$var reg 1 Z" instr_xor $end
$var reg 1 [" instr_xori $end
$var reg 1 \" irq_active $end
$var reg 1 ]" irq_delay $end
$var reg 32 ^" irq_mask [31:0] $end
$var reg 32 _" irq_pending [31:0] $end
$var reg 2 `" irq_state [1:0] $end
$var reg 1 a" is_alu_reg_imm $end
$var reg 1 b" is_alu_reg_reg $end
$var reg 1 c" is_beq_bne_blt_bge_bltu_bgeu $end
$var reg 1 d" is_compare $end
$var reg 1 e" is_jalr_addi_slti_sltiu_xori_ori_andi $end
$var reg 1 f" is_lb_lh_lw_lbu_lhu $end
$var reg 1 g" is_lbu_lhu_lw $end
$var reg 1 h" is_lui_auipc_jal $end
$var reg 1 i" is_lui_auipc_jal_jalr_addi_add_sub $end
$var reg 1 j" is_sb_sh_sw $end
$var reg 1 k" is_sll_srl_sra $end
$var reg 1 l" is_slli_srli_srai $end
$var reg 1 m" is_slti_blt_slt $end
$var reg 1 n" is_sltiu_bltu_sltu $end
$var reg 1 o" last_mem_valid $end
$var reg 1 p" latched_branch $end
$var reg 1 q" latched_compr $end
$var reg 1 r" latched_is_lb $end
$var reg 1 s" latched_is_lh $end
$var reg 1 t" latched_is_lu $end
$var reg 5 u" latched_rd [4:0] $end
$var reg 1 v" latched_stalu $end
$var reg 1 w" latched_store $end
$var reg 1 x" latched_trace $end
$var reg 16 y" mem_16bit_buffer [15:0] $end
$var reg 32 z" mem_addr [31:0] $end
$var reg 1 {" mem_do_prefetch $end
$var reg 1 |" mem_do_rdata $end
$var reg 1 }" mem_do_rinst $end
$var reg 1 ~" mem_do_wdata $end
$var reg 1 !# mem_instr $end
$var reg 1 "# mem_la_firstword_reg $end
$var reg 1 ## mem_la_secondword $end
$var reg 32 $# mem_la_wdata [31:0] $end
$var reg 4 %# mem_la_wstrb [3:0] $end
$var reg 32 &# mem_rdata_q [31:0] $end
$var reg 32 '# mem_rdata_word [31:0] $end
$var reg 2 (# mem_state [1:0] $end
$var reg 1 $ mem_valid $end
$var reg 32 )# mem_wdata [31:0] $end
$var reg 2 *# mem_wordsize [1:0] $end
$var reg 4 +# mem_wstrb [3:0] $end
$var reg 64 ,# new_ascii_instr [63:0] $end
$var reg 32 -# next_insn_opcode [31:0] $end
$var reg 32 .# next_irq_pending [31:0] $end
$var reg 32 /# pcpi_insn [31:0] $end
$var reg 32 0# pcpi_int_rd [31:0] $end
$var reg 1 1# pcpi_int_ready $end
$var reg 1 2# pcpi_int_wait $end
$var reg 1 3# pcpi_int_wr $end
$var reg 1 4# pcpi_timeout $end
$var reg 1 5# pcpi_valid $end
$var reg 1 6# prefetched_high_word $end
$var reg 64 7# q_ascii_instr [63:0] $end
$var reg 32 8# q_insn_imm [31:0] $end
$var reg 32 9# q_insn_opcode [31:0] $end
$var reg 5 :# q_insn_rd [4:0] $end
$var reg 5 ;# q_insn_rs1 [4:0] $end
$var reg 5 <# q_insn_rs2 [4:0] $end
$var reg 32 =# reg_next_pc [31:0] $end
$var reg 32 ># reg_op1 [31:0] $end
$var reg 32 ?# reg_op2 [31:0] $end
$var reg 32 @# reg_out [31:0] $end
$var reg 32 A# reg_pc [31:0] $end
$var reg 5 B# reg_sh [4:0] $end
$var reg 1 C# set_mem_do_rdata $end
$var reg 1 D# set_mem_do_rinst $end
$var reg 1 E# set_mem_do_wdata $end
$var reg 32 F# timer [31:0] $end
$var reg 36 G# trace_data [35:0] $end
$var reg 1 H# trace_valid $end
$var reg 1 ! trap $end
$scope begin genblk4 $end
$upscope $end
$scope begin genblk6 $end
$upscope $end
$scope begin genblk8 $end
$upscope $end
$scope task empty_statement $end
$upscope $end
$upscope $end
$scope begin $unm_blk_257 $end
$var integer 32 I# i [31:0] $end
$upscope $end
$upscope $end
$enddefinitions $end
#0
$dumpvars
b100000000000000 I#
xH#
bx G#
bx F#
xE#
xD#
xC#
bx B#
bx A#
bx @#
bx ?#
bx >#
bx =#
bx <#
bx ;#
bx :#
bx 9#
bx 8#
bx 7#
x6#
x5#
x4#
03#
02#
01#
bx 0#
bx /#
bx .#
bx -#
bx ,#
bx +#
bx *#
bx )#
bx (#
bx '#
bx &#
bx %#
bx $#
x##
x"#
x!#
x~"
x}"
x|"
x{"
bx z"
bx y"
xx"
xw"
xv"
bx u"
xt"
xs"
xr"
xq"
xp"
xo"
xn"
xm"
xl"
xk"
xj"
xi"
xh"
xg"
xf"
xe"
xd"
xc"
xb"
xa"
bx `"
bx _"
bx ^"
x]"
x\"
x["
xZ"
xY"
xX"
xW"
xV"
xU"
xT"
xS"
xR"
xQ"
xP"
xO"
xN"
xM"
xL"
xK"
xJ"
xI"
xH"
xG"
xF"
xE"
xD"
xC"
xB"
xA"
x@"
x?"
x>"
x="
x<"
x;"
x:"
x9"
x8"
x7"
x6"
x5"
x4"
x3"
x2"
x1"
x0"
x/"
x."
x-"
x,"
x+"
bx *"
x)"
x("
x'"
x&"
x%"
bx $"
bx #"
bx ""
bx !"
bx ~
bx }
x|
x{
bx z
xy
bx x
xw
bx v
bx u
bx t
bx s
bx r
bx q
bx p
bx o
bx n
xm
bx l
bx k
bx j
bx i
bx h
bx g
xf
xe
xd
bx c
bx b
bx a
bx `
bx _
bx ^
x]
x\
bx [
bx Z
bx Y
xX
xW
bx V
xU
xT
xS
bx R
xQ
xP
bx00 O
bx N
bx M
bx L
zK
zJ
bx I
bx H
zG
bz F
0E
0D
0C
bx B
0A
0@
0?
bx >
x=
bx <
0;
0:
09
08
07
06
x5
bz 4
x3
bx 2
bx 1
x0
x/
bx .
x-
bx ,
0+
bx *
0)
x(
bx '
1&
bx %
x$
bx #
bx "
x!
$end
#5000
0&
#10000
05
0=
b0 ,#
b110011001100101011101000110001101101000 p
0d
b0 L
b10000000000000000 l
1m
0o"
0"#
06#
0##
00
0$
b0 (#
0|
07"
0-"
0B"
0R"
0T"
0Z"
0Q"
0N"
0L"
0V"
0+"
0."
0C"
0["
0P"
0O"
0,"
02"
04"
01"
03"
05"
00"
0d"
0c"
b0 _"
0P
0~"
0|"
0}"
0{"
b1000000 i
b10000000000000000 @#
b10 u"
b0 F#
b0 *"
b0 `"
b11111111111111111111111111111111 ^"
0]"
0\"
04#
05#
0r"
0s"
0t"
0x"
0p"
0v"
1w"
b0 h
b0 =#
b0 A#
0H#
0)"
0%"
0'"
b0 g
0]
0\
0!
0/
0(
b0 .#
0E#
0C#
0D#
1&
#15000
0&
#20000
b10000000000000000 l
1m
1w"
0&"
0("
b10000000000000000 @#
0e
0n"
0m"
0w
b0 .#
1&
#25000
0&
#30000
b10000000000000000 l
1m
1w"
b10000000000000000 @#
b0 .#
1&
#35000
0&
#40000
b10000000000000000 l
1m
1w"
b10000000000000000 @#
b0 .#
1&
#45000
0&
#50000
b10000000000000000 l
1m
1w"
b10000000000000000 @#
b0 .#
1&
#55000
0&
#60000
b10000000000000000 l
1m
1w"
b10000000000000000 @#
b0 .#
1&
#65000
0&
#70000
b10000000000000000 l
1m
1w"
b10000000000000000 @#
b0 .#
1&
#75000
0&
#80000
b10000000000000000 l
1m
1w"
b10000000000000000 @#
b0 .#
1&
#85000
0&
#90000
b10000000000000000 l
1m
1w"
b10000000000000000 @#
b0 .#
1&
#95000
0&
#100000
b10000000000000000 l
1m
1)
1w"
b10000000000000000 @#
b0 .#
1&
#105000
0&
#110000
19
b0 O
b1111 %#
bx l
0m
bx _"
bx u"
0w"
b0 *#
1P
1}"
b1 g
bx @#
bx n
bx .#
1&
#115000
0&
#120000
09
b10 g
b1 (#
1-
1!#
10
1$
b0 2
b0 "
b0 +#
b0 ,
b0 %
b0 z"
bx n
1&
#125000
0&
#130000
16
b10100110111 N
b10100110111 M
1=
b10100110111 '#
1o"
b11 g
1/
1(
b10100110111 .
b10100110111 '
b10100110111 <
bx n
1&
#135000
0&
#140000
06
0=
bx00 O
15
b0 k
b0 j
b11011000111010101101001 ,#
03
b0 (#
00
0$
0/
0(
0P
0}"
1'"
b100 g
0f
b0 $"
b0 #"
b1010 !"
b0 ~
0b"
0a"
0j"
0f"
0Y"
0H"
0:"
09"
0/"
1?"
b10100110111 -#
b10100110111 &#
0o"
bx n
1&
#145000
0&
#150000
19
b100 O
05
b1010 t
b0 v
b0 u
b0 r
b10100110111 s
b11011000111010101101001 o
b11011000111010101101001 ,#
b11011000110010001011111011100100111001100110001 p
b100 L
b0 q
1|
1w
b0 }
0k"
0e"
0l"
0X"
0A"
0J"
08"
06"
0Q
0G"
0F"
0E"
0D"
0S"
0U"
0M"
0W"
0K"
0I"
0>"
0<"
0@"
0="
0;"
0i"
1h"
b100000 i
1P
1{"
b1 h
b100 =#
0q"
b1010 u"
1("
0'"
b101 g
0{
0y
bx n
1&
#155000
0&
#160000
09
b0 V
b1100101011110000110010101100011 p
b0 $#
b0 [
b0 Z
0U
0T
1S
b0 R
b1 (#
10
1$
b100 ,
b100 %
b100 z"
b1000 i
1}"
b0 I
b0 ?#
b0 H
b0 >#
0("
b110 g
0g"
1i"
b1010 a
b0 c
b0 b
b10100110111 `
b0 _
b11011000111010101101001 ^
0w
b1010 :#
b0 <#
b0 ;#
b10100110111 9#
b0 8#
b11011000111010101101001 7#
1&
#165000
0&
#170000
16
b10010001010000010100010011 N
b10010001010000010100010011 M
1=
b110011001100101011101000110001101101000 p
1m
b0 l
b10010001010000010100010011 '#
1o"
b1000000 i
1v"
1w"
b0 @#
b111 g
b0 Y
1/
1(
b10010001010000010100010011 .
b10010001010000010100010011 '
b10010001010000010100010011 <
1&
#175000
0&
#180000
06
0=
b0 O
15
bx l
0m
bx k
b0 ,#
13
b0 (#
00
0$
0/
0(
0P
0}"
0{"
0v"
0w"
b100 A#
1'"
b1000 g
bx @#
b100 $"
b1010 #"
b1010000000000100100 ~
1a"
0?"
b10010001010000010100010011 -#
b10010001010000010100010011 &#
0o"
bx n
1&
#185000
0&
#190000
19
b1000 O
05
b100 v
b1010 u
b100100 r
b10010001010000010100010011 s
b1100001011001000110010001101001 o
b1100001011001000110010001101001 ,#
03
bx V
b11011000110010001011111011100100111001100110001 p
b1000 L
b100 q
1w
b100100 }
1e"
1,"
0i"
0h"
b100000 i
1P
1{"
b10 h
b1000 =#
1("
0'"
b1001 g
bx n
1&
#195000
0&
#200000
09
b1100101011110000110010101100011 p
b100100 $#
1U
1T
0S
b100100 R
b100100 V
b1 (#
10
1$
b1000 ,
b1000 %
b1000 z"
b1000 i
1}"
1y
b0 x
b100100 I
b100100 ?#
b0 H
b0 >#
0("
b1010 g
bx Y
1i"
b100 c
b1010 b
b10010001010000010100010011 `
b100100 _
b1100001011001000110010001101001 ^
0w
b100 <#
b1010 ;#
b10010001010000010100010011 9#
b100100 8#
b1100001011001000110010001101001 7#
1&
#205000
0&
#210000
16
b10000000000000010110110111 N
b10000000000000010110110111 M
1=
b110011001100101011101000110001101101000 p
1m
b100100 l
b10000000000000010110110111 '#
1o"
b1000000 i
1v"
1w"
b101000 @#
b1011 g
b100100 Y
1/
1(
b10000000000000010110110111 .
b10000000000000010110110111 '
b10000000000000010110110111 <
1&
#215000
0&
#220000
06
0=
b0 O
15
bx l
0m
b0 k
b1100001011001000110010001101001 ,#
b0 (#
00
0$
0/
0(
0P
0}"
0{"
0v"
0w"
b1000 A#
1'"
b1100 g
bx @#
b0 $"
b0 #"
b1011 !"
b100000 ~
0a"
1?"
b10000000000000010110110111 -#
b10000000000000010110110111 &#
0o"
bx n
1&
#225000
0&
#230000
19
b1100 O
05
b1011 t
b0 v
b0 u
b10000000000000000000000000 r
b10000000000000010110110111 s
b11011000111010101101001 o
bx V
b11011000111010101101001 ,#
b11011000110010001011111011100100111001100110001 p
b1100 L
b1000 q
1w
b10000000000000000000000000 }
0i"
0e"
0,"
1h"
b100000 i
1P
1{"
b11 h
b1100 =#
b1011 u"
1("
0'"
b1101 g
0y
bx x
bx n
1&
#235000
0&
#240000
09
b1100101011110000110010101100011 p
b10000000000000000000000000 $#
b10000000000000000000000000 R
b10000000000000000000000000 V
b1 (#
10
1$
b1100 ,
b1100 %
b1100 z"
b1000 i
1}"
b10000000000000000000000000 I
b10000000000000000000000000 ?#
b0 H
b0 >#
0("
b1110 g
bx Y
1i"
b1011 a
b0 c
b0 b
b10000000000000010110110111 `
b10000000000000000000000000 _
b11011000111010101101001 ^
0w
b1011 :#
b0 <#
b0 ;#
b10000000000000010110110111 9#
b10000000000000000000000000 8#
b11011000111010101101001 7#
1&
#245000
0&
#250000
16
b10010101010000011000010011 N
b10010101010000011000010011 M
1=
b110011001100101011101000110001101101000 p
1m
b10000000000000000000000000 l
b10010101010000011000010011 '#
1o"
b1000000 i
1v"
1w"
b10000000000000000000001000 @#
b1111 g
b10000000000000000000000000 Y
1/
1(
b10010101010000011000010011 .
b10010101010000011000010011 '
b10010101010000011000010011 <
1&
#255000
0&
#260000
06
0=
b0 O
15
bx l
0m
bx k
b100100 j
b0 ,#
13
b0 (#
00
0$
0/
0(
0P
0}"
0{"
0v"
0w"
b1100 A#
1'"
b10000 g
bx @#
b101 $"
b1010 #"
b1100 !"
b1010000100000100100 ~
1a"
0?"
b10010101010000011000010011 -#
b10010101010000011000010011 &#
0o"
bx n
1&
#265000
0&
#270000
19
b10000 O
05
b1100 t
b101 v
b1010 u
b100101 r
b10010101010000011000010011 s
b1100001011001000110010001101001 o
b1100001011001000110010001101001 ,#
03
bx V
b11011000110010001011111011100100111001100110001 p
b10000 L
b1100 q
1w
b100101 }
1e"
1,"
0i"
0h"
b100000 i
1P
1{"
b100 h
b10000 =#
b1100 u"
1("
0'"
b10001 g
bx n
1&
#275000
0&
#280000
09
b1100101011110000110010101100011 p
b100101 $#
b1 [
b10010000000 Z
b1001001 R
b1001001 V
b1 (#
10
1$
b10000 ,
b10000 %
b10000 z"
b1000 i
1}"
1y
b100100 x
b100101 I
b100101 ?#
b100100 H
b100100 >#
0("
b10010 g
bx Y
1i"
b1100 a
b101 c
b1010 b
b10010101010000011000010011 `
b100101 _
b1100001011001000110010001101001 ^
0w
b1100 :#
b101 <#
b1010 ;#
b10010101010000011000010011 9#
b100101 8#
b1100001011001000110010001101001 7#
1&
#285000
0&
#290000
16
b1010100011010000011 N
b1010100011010000011 M
1=
b110011001100101011101000110001101101000 p
1m
b1001001 l
b1010100011010000011 '#
1o"
b1000000 i
1v"
1w"
b110001 @#
b10011 g
b1001001 Y
1/
1(
b1010100011010000011 .
b1010100011010000011 '
b1010100011010000011 <
1&
#295000
0&
#300000
06
0=
b100100 O
15
bx l
0m
b0 k
b0 (#
00
0$
0/
0(
0P
0}"
0{"
0v"
0w"
b10000 A#
1'"
b10100 g
bx @#
b0 $"
b1101 !"
b1010100000000000000 ~
0a"
1f"
b1010100011010000011 -#
b1010100011010000011 &#
0o"
bx n
1&
#305000
0&
#310000
19
b10100 O
05
b1101 t
b0 v
b0 r
b1010100011010000011 s
b11011000110001001110101 o
bx V
b11011000110001001110101 ,#
b11011000110010001011111011100100111001100110001 p
b10100 L
b10000 q
1w
b0 }
0i"
0e"
0,"
1<"
b100000 i
1P
1{"
b101 h
b10100 =#
b1101 u"
1("
0'"
b10101 g
0y
bx x
bx n
1&
#315000
0&
#320000
09
b110110001100100011011010110010101101101 p
bx $#
bx [
bx Z
xU
xT
xS
bx R
b1 (#
10
1$
b10100 ,
b10100 %
b10100 z"
1}"
b1 i
1y
b100100 x
bx I
bx ?#
b100100 H
b100100 >#
0("
b10110 g
bx Y
1g"
b1101 a
b0 c
b1010100011010000011 `
b0 _
b11011000110001001110101 ^
0w
b1101 :#
b0 <#
b1010100011010000011 9#
b0 8#
b11011000110001001110101 7#
1&
#325000
0&
#330000
16
b101010000010100010011 N
b101010000010100010011 M
1=
b101010000010100010011 '#
1o"
1w"
b10111 g
1/
1(
b101010000010100010011 .
b101010000010100010011 '
b101010000010100010011 <
1&
#335000
0&
#340000
06
19
0=
b100100 O
b10011 '#
b1 %#
bx k
b0 (#
00
0$
0/
0(
1|"
1P
0}"
0{"
1t"
b10 *#
1'"
b11000 g
b1 $"
b1010 !"
b1010000100000000000 ~
1a"
0f"
b101010000010100010011 -#
b101010000010100010011 &#
0o"
1C#
1&
#345000
0&
#350000
09
b1100001011001000110010001101001 ,#
b1 }
1e"
1,"
0<"
1("
0'"
b11001 g
b1 (#
0-
0!#
10
1$
b100100 ,
b100100 %
b100100 z"
0C#
1&
#355000
0&
#360000
16
b1101100011011000110010101001000 N
b1101100011011000110010101001000 M
1=
b1001000 '#
1/
1(
b1101100011011000110010101001000 .
b1101100011011000110010101001000 '
b1101100011011000110010101001000 <
0("
b11010 g
0g"
1i"
b1010 a
b1 c
b101010000010100010011 `
b1 _
b1100001011001000110010001101001 ^
1o"
1&
#365000
0&
#370000
06
15
0=
b110011001100101011101000110001101101000 p
1m
b1001000 l
b0 (#
00
0$
0o"
b1101100011011000110010101001000 -#
b1101100011011000110010101001000 &#
0P
0|"
b1000000 i
1%"
1'"
b1001000 @#
b11011 g
0/
0(
1&
#375000
0&
#380000
19
b11000 O
05
b11011000110010001011111011100100111001100110001 p
b11000 L
b1101100011011000110010101001000 '#
b1111 %#
bx l
0m
b1010 t
b1 v
b101010000010100010011 s
b1 r
b1100001011001000110010001101001 o
b100000 i
1P
1{"
b110 h
b11000 =#
b1010 u"
0t"
0w"
b10100 A#
b0 *#
1&"
0%"
1("
0'"
b11100 g
0y
bx x
bx @#
b10100 q
1w
bx n
1&
#385000
0&
#390000
09
b1100101011110000110010101100011 p
b100101 V
b1 $#
b10010 [
b1001000 Z
0U
0T
0S
b100101 R
b1 (#
1-
1!#
10
1$
b11000 ,
b11000 %
b11000 z"
b110010101001000 `
0w
b1010 :#
b1 <#
b101010000010100010011 9#
b1 8#
b1100001011001000110010001101001 7#
b1000 i
1}"
b1 I
b1 ?#
1y
b100100 x
b100100 H
b100100 >#
0&"
0("
b11101 g
1&
#395000
0&
#400000
16
b110101011000000000100011 N
b110101011000000000100011 M
1=
b110101011000000000100011 '#
b110011001100101011101000110001101101000 p
1m
b100101 l
1/
1(
b110101011000000000100011 .
b110101011000000000100011 '
b110101011000000000100011 <
b1000000 i
1v"
1w"
b10101 @#
b11110 g
b100101 Y
1o"
1&
#405000
0&
#410000
06
b100100 O
15
0=
b1001000 k
b10000000000000000000000000 j
bx l
0m
b0 (#
00
0$
0o"
b110101011000000000100011 -#
b110101011000000000100011 &#
b1101 $"
b1011 #"
b0 !"
b1011000100000001100 ~
0a"
1j"
0P
0}"
0{"
0v"
0w"
b11000 A#
1'"
b11111 g
bx @#
0/
0(
bx n
1&
#415000
0&
#420000
19
b11100 O
05
b111001101100010 o
b11011000110010001011111011100100111001100110001 p
b11100 L
bx V
b111001101100010 ,#
b0 t
b1101 v
b1011 u
b0 r
b110101011000000000100011 s
b100000 i
1P
1{"
b111 h
b11100 =#
b0 u"
1("
0'"
b100000 g
0y
bx x
b0 }
0i"
0e"
0,"
1I"
b11000 q
1w
bx n
1&
#425000
0&
#430000
09
b111001101110100011011010110010101101101 p
b1001000 $#
b100000000000000000 [
b0 Z
b10000000000000000001001000 R
b1 (#
10
1$
b11100 ,
b11100 %
b11100 z"
b0 a
b1101 c
b1011 b
b110101011000000000100011 `
b0 _
b111001101100010 ^
0w
b0 :#
b1101 <#
b1011 ;#
b110101011000000000100011 9#
b0 8#
b111001101100010 7#
1}"
b10 i
1{
b1001000 z
b1000 B#
1y
b10000000000000000000000000 x
b1001000 I
b1001000 ?#
b10000000000000000000000000 H
b10000000000000000000000000 >#
0("
b100001 g
bx Y
1&
#435000
0&
#440000
16
b11111110110001010001101011100011 N
b11111110110001010001101011100011 M
1=
b11111110110001010001101011100011 '#
1/
1(
b11111110110001010001101011100011 .
b11111110110001010001101011100011 '
b11111110110001010001101011100011 <
b100010 g
bx B#
1o"
1&
#445000
0&
#450000
06
1;
b10000000000000000000000000 O
0=
b1001001 k
b100101 j
b11100011 '#
b1 %#
b1001000010010000100100001001000 $#
b0 (#
00
0$
0o"
b11111110110001010001101011100011 -#
b11111110110001010001101011100011 &#
b1100 $"
b1010 #"
b10101 !"
b11111111111101010001011111101100 ~
0j"
1c"
1~"
1P
0}"
0{"
b10 *#
1'"
b100011 g
0/
0(
1E#
1&
#455000
0&
#460000
0;
b11000100110111001100101 ,#
1W
1("
0'"
b100100 g
b11111111111111111111111111110100 }
0I"
15"
0d"
b10 (#
0-
0!#
10
1$
b1001000010010000100100001001000 1
b1001000010010000100100001001000 #
b1001000010010000100100001001000 )#
b1 2
b1 "
b1 +#
b10000000000000000000000000 ,
b10000000000000000000000000 %
b10000000000000000000000000 z"
0E#
1&
#465000
0&
#470000
16
1=
b1 V
1W
1o"
b10101 a
b1100 c
b1010 b
b11111110110001010001101011100011 `
b11111111111111111111111111110100 _
b11000100110111001100101 ^
1d"
0("
b100101 g
1X
1/
1(
1+
b1001000 *
1&
#475000
0&
#480000
06
0=
15
b110011001100101011101000110001101101000 p
b0 (#
00
0$
0/
0(
0+
0P
0~"
1%"
1'"
b1000000 i
b100110 g
b1 Y
0o"
1&
#485000
0&
#490000
19
b100000 O
05
b11011000110010001011111011100100111001100110001 p
b100000 L
b11111110110001010001101011100011 '#
b1111 %#
b1001000 $#
b10101 t
b1100 v
b1010 u
b11111110110001010001101011100011 s
b11111111111111111111111111110100 r
b11000100110111001100101 o
b11100 q
1w
b100000 i
1P
1{"
b1000 h
b100000 =#
b10101 u"
b11100 A#
b0 *#
1&"
0%"
1("
0'"
b100111 g
0{
0y
bx z
bx x
bx n
1&
#495000
0&
#500000
09
b1100101011110000110010101100011 p
b1 V
1W
b1001001 $#
b0 [
b100101000000000 Z
1U
1T
b1101110 R
b1 (#
1-
1!#
10
1$
b0 2
b0 "
b0 +#
b100000 ,
b100000 %
b100000 z"
b1000 i
1}"
1{
b1001001 z
b1001 B#
1y
b100101 x
b1001001 I
b1001001 ?#
b100101 H
b100101 >#
0&"
0("
b101000 g
0w
b10101 :#
b1100 <#
b1010 ;#
b11111110110001010001101011100011 9#
b11111111111111111111111111110100 8#
b11000100110111001100101 7#
1&
#505000
0&
#510000
16
b1101111 N
b10000 O
b1101111 M
b10000 L
1=
b1101111 '#
1o"
1p"
1w"
b0 u"
b10000 @#
b101001 g
bx B#
1/
1(
b1101111 .
b1101111 '
b1101111 <
1D#
1&
#515000
0&
#520000
06
19
0=
b110011001100101011101000110001101101000 p
1m
b100000 l
b0 k
b0 j
b11000100110111001100101 ,#
b0 (#
00
0$
0/
0(
1P
1}"
0{"
b1000000 i
0'"
b101010 g
b10000 @#
b0 $"
b0 #"
b0 !"
b0 ~
0c"
19"
b1101111 -#
b1101111 &#
0o"
1D#
1&
#525000
0&
#530000
09
b1101110 V
1W
bx l
0m
0d"
1i"
1h"
0p"
0w"
b10000 =#
b10000 A#
b101011 g
bx @#
b1 (#
10
1$
b10000 ,
b10000 %
b10000 z"
bx n
0D#
1&
#535000
0&
#540000
16
b1010100011010000011 N
b1010100011010000011 M
1=
b1010100011010000011 '#
1/
1(
b1010100011010000011 .
b1010100011010000011 '
b1010100011010000011 <
b101100 g
b1101110 Y
1o"
bx n
1&
#545000
0&
